index
…
Data

Data for ggplot2 needs to be rectangular.

Most time series datasets look like this:

# A tibble: 24,320 × 5
   Quarter    Region   State           Purpose  Trips
   <date>     <chr>    <chr>           <chr>    <dbl>
 1 1998-01-01 Adelaide South Australia Business  135.
 2 1998-04-01 Adelaide South Australia Business  110.
 3 1998-07-01 Adelaide South Australia Business  166.
 4 1998-10-01 Adelaide South Australia Business  127.
 5 1999-01-01 Adelaide South Australia Business  137.
 6 1999-04-01 Adelaide South Australia Business  200.
 7 1999-07-01 Adelaide South Australia Business  169.
 8 1999-10-01 Adelaide South Australia Business  134.
 9 2000-01-01 Adelaide South Australia Business  154.
10 2000-04-01 Adelaide South Australia Business  169.
# ℹ 24,310 more rows
…
